Model,Batch,Concurrency,Model Config Path,Instance Group,Satisfies Constraints,Throughput (infer/sec),p99 Latency (ms)
critterblock,1,1,critterblock_config_default,1/GPU,Yes,352.6,3.3
critterblock,1,2,critterblock_config_default,1/GPU,Yes,388.0,5.6
critterblock,1,4,critterblock_config_default,1/GPU,Yes,385.0,11.1
critterblock,1,8,critterblock_config_default,1/GPU,Yes,386.0,21.5
critterblock,1,16,critterblock_config_default,1/GPU,Yes,377.6,42.3
critterblock,1,1,critterblock_config_0,1/GPU,Yes,352.0,3.3
critterblock,1,2,critterblock_config_0,1/GPU,Yes,382.0,5.9
critterblock,1,4,critterblock_config_0,1/GPU,Yes,384.0,11.0
critterblock,1,8,critterblock_config_0,1/GPU,Yes,382.0,21.6
critterblock,1,16,critterblock_config_0,1/GPU,Yes,377.0,42.4
critterblock,1,1,critterblock_config_1,2/GPU,Yes,364.0,3.4
critterblock,1,2,critterblock_config_1,2/GPU,Yes,449.0,5.2
critterblock,1,4,critterblock_config_1,2/GPU,Yes,477.0,9.3
critterblock,1,8,critterblock_config_1,2/GPU,Yes,475.0,18.5
critterblock,1,16,critterblock_config_1,2/GPU,Yes,451.0,36.3
critterblock,1,32,critterblock_config_1,2/GPU,Yes,447.0,71.2
critterblock,1,1,critterblock_config_2,3/GPU,Yes,339.0,3.4
critterblock,1,2,critterblock_config_2,3/GPU,Yes,447.0,5.6
critterblock,1,4,critterblock_config_2,3/GPU,Yes,475.0,11.8
critterblock,1,8,critterblock_config_2,3/GPU,Yes,514.0,18.2
critterblock,1,16,critterblock_config_2,3/GPU,Yes,482.0,36.6
critterblock,1,32,critterblock_config_2,3/GPU,Yes,459.0,71.1
critterblock,1,64,critterblock_config_2,3/GPU,Yes,438.0,140.9
critterblock,1,1,critterblock_config_4,5/GPU,Yes,334.0,3.7
critterblock,1,2,critterblock_config_4,5/GPU,Yes,445.0,5.7
critterblock,1,4,critterblock_config_4,5/GPU,Yes,477.0,11.0
critterblock,1,8,critterblock_config_4,5/GPU,Yes,487.0,25.5
critterblock,1,16,critterblock_config_4,5/GPU,Yes,508.0,36.0
critterblock,1,32,critterblock_config_4,5/GPU,Yes,499.0,67.2
critterblock,1,1,critterblock_config_3,4/GPU,Yes,332.0,3.7
critterblock,1,2,critterblock_config_3,4/GPU,Yes,427.0,5.9
critterblock,1,4,critterblock_config_3,4/GPU,Yes,453.0,12.4
critterblock,1,8,critterblock_config_3,4/GPU,Yes,520.0,20.6
critterblock,1,16,critterblock_config_3,4/GPU,Yes,524.0,34.1
critterblock,1,32,critterblock_config_3,4/GPU,Yes,489.0,67.3
critterblock,1,64,critterblock_config_3,4/GPU,Yes,488.0,129.3

